…
[1] 88
[1] 89
[1] 90
[1] 91
[1] 92
[1] 93
[1] 94
[1] 95
[1] 96
[1] 97
[1] 98
[1] 99
[1] 100
[[1]]
# A tibble: 7,000 × 4
    step parameter_comb strategy         prop_runs_prevA_above
   <dbl>          <int> <chr>                            <dbl>
 1   730              1 equal allocation                     0
 2  1000              1 equal allocation                     0
 3  1825              1 equal allocation                     0
 4  3650              1 equal allocation                     0
 5  5000              1 equal allocation                     0
 6  7300              1 equal allocation                     0
 7 10000              1 equal allocation                     0
 8   730              2 equal allocation                     0
 9  1000              2 equal allocation                     0
10  1825              2 equal allocation                     0
# ℹ 6,990 more rows

[[2]]
# A tibble: 7,000 × 4
    step parameter_comb strategy         prop_runs_prevB_above
   <dbl>          <int> <chr>                            <dbl>
 1   730              1 equal allocation                     0
 2  1000              1 equal allocation                     0
 3  1825              1 equal allocation                     0
 4  3650              1 equal allocation                     0
 5  5000              1 equal allocation                     0
 6  7300              1 equal allocation                     0
 7 10000              1 equal allocation                     0
 8   730              2 equal allocation                     0
 9  1000              2 equal allocation                     0
10  1825              2 equal allocation                     0
# ℹ 6,990 more rows

[[3]]
# A tibble: 7,000 × 4
    step parameter_comb strategy         prop_runs_prevC_above
   <dbl>          <int> <chr>                            <dbl>
 1   730              1 equal allocation                     0
 2  1000              1 equal allocation                     0
 3  1825              1 equal allocation                     0
 4  3650              1 equal allocation                     0
 5  5000              1 equal allocation                     0
 6  7300              1 equal allocation                     0
 7 10000              1 equal allocation                     0
 8   730              2 equal allocation                     0
 9  1000              2 equal allocation                     0
10  1825              2 equal allocation                     0
# ℹ 6,990 more rows

[[4]]
# A tibble: 7,000 × 5
    step avg_drugs_lost avg_all3_lost parameter_comb strategy        
   <dbl>          <dbl>         <dbl>          <int> <chr>           
 1   730              0             0              1 equal allocation
 2  1000              0             0              1 equal allocation
 3  1825              0             0              1 equal allocation
 4  3650              0             0              1 equal allocation
 5  5000              0             0              1 equal allocation
 6  7300              0             0              1 equal allocation
 7 10000              0             0              1 equal allocation
 8   730              0             0              2 equal allocation
 9  1000              0             0              2 equal allocation
10  1825              0             0              2 equal allocation
# ℹ 6,990 more rows
…
