…
      |                                               ~^
      |                                                |
      |                                                int
      |                                               %ld
 3845 |                  i + 1, name, dim_expected);
      |                  ~~~~~                          
      |                    |
      |                    size_t {aka long unsigned int}
gcc -I"/usr/local/lib/R/include" -DNDEBUG   -I/usr/local/include    -fpic  -g -O2 -fstack-protector-strong -Wformat -Wformat-security -Wdate-time -D_FORTIFY_SOURCE=2 -g  -UNDEBUG -Wall -pedantic -g -O0 -c registration.c -o registration.o
gcc -shared -L/usr/local/lib/R/lib -L/usr/local/lib -o odin697c2f06.so odin.o registration.o -L/usr/local/lib/R/lib -lR
installing to /tmp/Rtmpavi6x0/devtools_install_366d9b771751b7/00LOCK-file366d9b28de503e/00new/odin697c2f06/libs
** checking absolute paths in shared objects and dynamic libraries
* DONE (odin697c2f06)
[[1]]
# A tibble: 7,000 × 4
    step parameter_comb strategy   prop_runs_prevA_above
   <dbl>          <int> <chr>                      <dbl>
 1   730              1 sequential                  0   
 2  1000              1 sequential                  0   
 3  1825              1 sequential                  0   
 4  3650              1 sequential                  0   
 5  5000              1 sequential                  0.72
 6  7300              1 sequential                  1   
 7 10000              1 sequential                  1   
 8   730              2 sequential                  1   
 9  1000              2 sequential                  1   
10  1825              2 sequential                  1   
# ℹ 6,990 more rows

[[2]]
# A tibble: 7,000 × 4
    step parameter_comb strategy   prop_runs_prevB_above
   <dbl>          <int> <chr>                      <dbl>
 1   730              1 sequential                     0
 2  1000              1 sequential                     0
 3  1825              1 sequential                     0
 4  3650              1 sequential                     0
 5  5000              1 sequential                     0
 6  7300              1 sequential                     0
 7 10000              1 sequential                     0
 8   730              2 sequential                     0
 9  1000              2 sequential                     0
10  1825              2 sequential                     1
# ℹ 6,990 more rows

[[3]]
# A tibble: 7,000 × 4
    step parameter_comb strategy   prop_runs_prevC_above
   <dbl>          <int> <chr>                      <dbl>
 1   730              1 sequential                     0
 2  1000              1 sequential                     0
 3  1825              1 sequential                     0
 4  3650              1 sequential                     0
 5  5000              1 sequential                     0
 6  7300              1 sequential                     0
 7 10000              1 sequential                     0
 8   730              2 sequential                     0
 9  1000              2 sequential                     0
10  1825              2 sequential                     0
# ℹ 6,990 more rows
